{
  "date":       "202605112233",
  "id_juego":   1,
  "id_equipo":  1,
  "id_usuario": 1,
  "desafios": [
    {
      "id_desafio":   "1",
      "titulo":       "Desafio uno",
      "categoria":    "Forensia",
      "puntos":       "25",
      "descripcion":  "Esta es la descripcion del desafio uno",
      "hint1": {
        "id_hint": "1",
        "disponible": "true",
        "porcentaje": "10%"
      },
      "hint2": {
        "id_hint": "2",
        "disponible": "false",
        "porcentaje": "10%"
      },
      "adjunto": "http://zaraza.con/adjunto.zip"
    },
    {
      "id_desafio":   "2",
      "titulo":       "Desafio dos",
      "categoria":    "Crypto",
      "puntos":       "25",
      "descripcion":  "Esta es la descripcion del desafio dos",
      "hint1": {
        "id_hint": "1",
        "disponible": "true",
        "porcentaje": "10%"
      },
      "hint2": {
        "id_hint": "2",
        "disponible": "false",
        "porcentaje": "10%"
      },
      "adjunto": "http://zaraza.con/adjunto.zip"
    }
  ]
}
