{
  "date": "202605112233",
  "id_juego": 1,
  "puntajes": [
    {
      "id_team": "1",
      "defensivo": 1000,
      "ofensivo": 100,
      "disclosure": 0
    },
    {
      "id_team": "2",
      "defensivo": 800,
      "ofensivo": 10,
      "disclosure": 0
    }
  ]
}
